Lab3/sourceCode/Phase1Test.vcd
$date
	Thu May 07 10:26:02 2015
$end
$version
	Icarus Verilog
$end
$timescale
	1s
$end
$scope module interfaceTest $end
$scope module dut $end
$var wire 1 ! C $end
$var wire 1 " CLOCK_50 $end
$var wire 7 # HEX0 [6:0] $end
$var wire 7 $ HEX1 [6:0] $end
$var wire 7 % HEX2 [6:0] $end
$var wire 7 & HEX3 [6:0] $end
$var wire 4 ' KEY [3:0] $end
$var wire 10 ( LEDR [9:0] $end
$var wire 1 ) N $end
$var wire 10 * SW [9:0] $end
$var wire 1 + V $end
$var wire 1 , Z $end
$var wire 1 - clk $end
$var wire 32 . dataOut [31:0] $end
$var wire 4 / digits [3:0] $end
$var wire 1 0 run $end
$var reg 32 1 A [31:0] $end
$var reg 32 2 AL [31:0] $end
$var reg 32 3 B [31:0] $end
$var reg 32 4 BL [31:0] $end
$var reg 2 5 count [1:0] $end
$var reg 32 6 data [31:0] $end
$var reg 1 7 eHold $end
$var reg 1 8 enter $end
$var reg 3 9 oper [2:0] $end
$var reg 2 : sel [1:0] $end
$upscope $end
$upscope $end
$enddefinitions $end
#0
$dumpvars
b0 :
b0 9
08
07
b0 6
b0 5
b0 4
b0 3
b0 2
b0 1
00
b0 /
bx .
x-
x,
x+
b0 *
x)
bzxxxx (
b1111 '
b1000000 &
b1000000 %
b1000000 $
b1000000 #
x"
x!
$end
#20
b0 .
0)
0!
0+
0,
bz0000 (
17
18
b1 /
b1110 '
b1 *
1-
1"
#30
0-
0"
#40
08
07
b1 5
b1 2
1-
1"
b1111 '
#50
0-
0"
#60
b1111001 #
17
18
b1 6
1-
1"
b1110 '
b100000001 *
#70
0-
0"
#80
b0 5
b1 :
08
07
1-
1"
b1111 '
#90
0-
0"
#100
b1000000 #
17
18
b0 6
b10 /
1-
1"
b1110 '
b100000010 *
#110
0-
0"
#120
08
07
b1 5
b10 4
1-
1"
b1111 '
#130
0-
0"
#140
b100100 #
17
18
b10 6
1-
1"
b1110 '
b1100000010 *
#150
0-
0"
#160
b0 5
b11 :
08
07
1-
1"
b1111 '
#170
0-
0"
#180
b1000000 #
b0 6
10
1-
1"
b1101 '
#190
0-
0"
#200
b10 3
b1 1
b1 9
1-
1"
b1100010010 *
#210
0-
0"
#220
b11 .
b10 9
1-
1"
b1100100010 *
#230
0-
0"
#240
b110000 #
b11 9
b11 6
b11111111111111111111111111111111 .
1)
1+
bz0101 (
1-
1"
b1100110010 *
#250
0-
0"
#260
b1110 #
b1110 $
b1110 %
b1110 &
b0 .
0)
0+
bz0000 (
b100 9
b11111111111111111111111111111111 6
1-
1"
b1101000010 *
#270
0-
0"
#280
b1000000 #
b1000000 $
b1000000 %
b1000000 &
b101 9
b0 6
b11 .
1-
1"
b1101010010 *
#290
0-
0"
#300
b110000 #
b110 9
b11 6
1-
1"
b1101100010 *
#310
0-
0"
#320
b111 9
b1 .
1-
1"
b1101110010 *
#330
0-
0"
#340
b1111001 #
b100 .
b1 6
1-
1"
#350
0-
0"
#360
b11001 #
b100 6
1-
1"
